2 2nd Tutorial | Sampling technique
…
As \(E(\bar{y})=\mu\) so \(\bar{y}\) is unbias estimator of \(\mu\).

By R

#install.packages("tidyverse")
library(tidyverse)
Y <- c(29,32,26,28,36)
(Ybar <- mean(Y))

## [1] 30.2

(sample <- crossing(Var1=Y, Var2=Y)) # A tibble: 25 x 2

## # A tibble: 25 x 2
##     Var1  Var2
##    <dbl> <dbl>
##  1    26    26
##  2    26    28
##  3    26    29
##  4    26    32
##  5    26    36
##  6    28    26
##  7    28    28
##  8    28    29
##  9    28    32
## 10    28    36
## # ... with 15 more rows
…
(unbiased=mean(ybars))

## [1] 30.2

Let’s take an example of size three:

By R:

Y <- c(29,32,26,28,36)
Ybar <- mean(Y)
sample <- crossing (Var1=Y, Var2=Y, Var3=Y)
samples<- sample(Y, 3, replace= TRUE)
sample     #No. of observation = 5^3 = 125

## # A tibble: 125 x 3
##     Var1  Var2  Var3
##    <dbl> <dbl> <dbl>
##  1    26    26    26
##  2    26    26    28
##  3    26    26    29
##  4    26    26    32
##  5    26    26    36
##  6    26    28    26
##  7    26    28    28
##  8    26    28    29
##  9    26    28    32
## 10    26    28    36
## # ... with 115 more rows
…
